Indx 109
prf 0
TimeToLock 2000
MaxTwstargets 16
Timetosearch1 4000
Timetosearch2 4000
Timetosearch3 4000
Timetoacuire 4000
Timetoguide 3000
Timetocoast 4000
Rangetosearch1 323000
Rangetosearch2 303000
Rangetosearch3 293000
Rangetoacuire 255000
Rangetoguide 238000
Sweeptimesearch1 4000
Sweeptimesearch2 4000
Sweeptimesearch3 3000
Sweeptimeacuire 1500
Sweeptimeguide 10
Sweeptimecoast 1500
Timeskillfactor 100
Rwrsoundsearch1 163
Rwrsoundsearch2 163
Rwrsoundsearch3 163
Rwrsoundacuire 202
Rwrsoundguide 93
Rwrsymbolsearch1 18
Rwrsymbolsearch2 18
Rwrsymbolsearch3 18
Rwrsymbolacuire 18
Rwrsymbolguide 18
CustomSymbolType 5
AirFireRate 5000
Maxmissilesintheair 1
Elevationbumpamounta 30
Elevationbumpamountb 0
AverageSpeed 1500
MaxAngleDiffTws 90.0
MaxRangeDiffTws 100
MaxAngleDiffSam 90.0
MaxRangeDiffSam 100