# Title: AA-10D Alamo (R-27ET)
# Author: BMS
# Revision: Missile Data Manager ver:1.2.0.0 Date: 9/3/2015 4:00:23 PM
#-----------------------------------------------------
# Comments
#-----------------------------------------------------
#L3C : Drag adjustment (15-09-08)
#-----------------------------------------------------
#     INPUT DATA
#-----------------------------------------------------
#
# Final Time (sec)
60.000000
# Pk (0.0-1.0)
1.000000
# Weight of missile (lbs)
473.20
# Weight of propellant (lbs)
298.40
# Motor Impulse (lb-sec)
71624.90
# Reference Area (ft*ft)
0.571500
# Nozzle Exit Area (ft*ft)
0.338000
# Length (ft)
15.420000
# AOA max (deg)
20.0
# AOA min (deg)
-20.0
# Beta max (deg)
20.0
# Beta min (deg)
-20.0
# Velocity min (mach)
0.500000
# Gimbal Angle Limit (deg)
55.0
# Gimbl Ang Rate Lim (deg/sec)
25.0
# Field of View (deg)
8.0
# Guidance Delay (sec)
1.00
# Lofting Bias (Gs)
0.80
# Proportional nav gain
2.30
# Autopilot Bandwidth
0.00
# Time To Go Active (sec)
-1.00
# Seeker Type
0
# Seeker Version
38
# Display
0
# Missile loft time
10.000000
# boostguidesec
0.500000
# terminalguiderange
30380.000000
# boostguideSensorPrecision
3.300000
# sustainguideSensorPrecision
3.000000
# terminalguideSensorPrecision
2.400000
# boostguideLead
1.000000
# sustainguideLead
1.000000
# terminalguideLead
1.000000
# boostguideGnav
2.500000
# sustainguideGnav
3.000000
# terminalguideGnav
4.000000
# boostguideBwap
0.050000
# sustainguideBwap
0.050000
# terminalguideBwap
0.050000
#-----------------------------------------------------
#     AERO DATA
#-----------------------------------------------------
#
#-----------------------------------------------------
# MACH BREAKPOINTS
#-----------------------------------------------------
# MACH
10
  +0.000000  +0.750000  +0.950000  +1.000000  +1.100000  +1.600000  +2.800000
  +3.750000  +4.500000  +6.000000
#
#-----------------------------------------------------
# ALPHA BREAKPOINTS
#-----------------------------------------------------
# ALPHA
10
  +0.000000  +2.500000  +5.000000  +7.500000 +10.000000 +15.000000 +20.000000
 +25.000000 +30.000000 +33.000000
#
#-----------------------------------------------------
# NORMAL FORCE COEFFICIENT CZ (SYMMETRIC ABOUT ALPHA = 0)
#-----------------------------------------------------
#
# Normal Multiplier
-1.100000
#
# Mach: 0.0
  +0.000000  +0.830000  +1.661000  +2.530000  +3.400000  +5.300000  +8.400000
 +10.500000 +12.500000 +11.500000
#
# Mach: 0.8
  +0.000000  +0.830000  +1.661000  +2.530000  +3.400000  +5.300000  +8.400000
 +10.500000 +12.500000 +11.500000
#
# Mach: 1.0
  +0.000000  +0.880000  +1.761000  +2.680000  +3.600000  +5.650000  +8.700000
 +10.900000 +13.000000 +12.000000
#
# Mach: 1.0
  +0.000000  +0.950000  +1.904000  +2.920000  +3.948000  +6.110000  +9.510000
 +11.200000 +13.320000 +12.000000
#
# Mach: 1.1
  +0.000000  +1.300000  +2.595000  +3.210000  +3.848000  +6.100000  +9.360000
 +10.990000 +13.240000 +12.000000
#
# Mach: 1.6
  +0.000000  +0.880000  +1.762000  +2.560000  +3.567000  +5.560000  +8.770000
 +10.790000 +13.260000 +12.000000
#
# Mach: 2.8
  +0.000000  +0.620000  +1.242000  +1.940000  +2.664000  +4.880000  +7.930000
 +10.060000 +12.590000 +11.500000
#
# Mach: 3.8
  +0.000000  +0.540000  +1.083000  +1.780000  +2.510000  +4.630000  +7.390000
  +9.250000 +11.550000 +10.000000
#
# Mach: 4.5
  +0.000000  +0.520000  +1.050000  +1.740000  +2.420000  +4.500000  +7.220000
  +9.050000 +11.230000 +10.000000
#
# Mach: 6.0
  +0.000000  +0.520000  +1.050000  +1.740000  +2.420000  +4.500000  +7.220000
  +9.050000 +11.230000 +10.000000
#
#
#-----------------------------------------------------
# AXIAL FORCE COEFFICIENT CX (SYMMETRIC ABOUT ALPHA = 0)
#-----------------------------------------------------
#
# Axial Multiplier
-1.900000
#
# Mach: 0.0
  +0.370000  +0.382000  +0.397000  +0.400000  +0.410000  +0.400000  +0.400000
  +0.400000  +0.450000  +1.100000
#
# Mach: 0.8
  +0.370000  +0.382000  +0.397000  +0.400000  +0.410000  +0.400000  +0.400000
  +0.400000  +0.450000  +1.100000
#
# Mach: 1.0
  +0.570000  +0.570000  +0.569000  +0.570000  +0.570000  +0.570000  +0.570000
  +0.570000  +0.620000  +1.300000
#
# Mach: 1.0
  +0.750000  +0.762000  +0.767000  +0.781000  +0.796000  +0.703000  +0.703000
  +0.703000  +0.753000  +1.500000
#
# Mach: 1.1
  +0.760000  +0.760000  +0.760000  +0.780000  +0.804000  +0.742000  +0.742000
  +0.742000  +0.742000  +1.500000
#
# Mach: 1.6
  +0.620000  +0.629000  +0.639000  +0.645000  +0.650000  +0.644000  +0.644000
  +0.644000  +0.694000  +1.500000
#
# Mach: 2.8
  +0.410000  +0.416000  +0.423000  +0.423000  +0.424000  +0.440000  +0.440000
  +0.440000  +0.490000  +1.200000
#
# Mach: 3.8
  +0.320000  +0.328000  +0.337000  +0.346000  +0.355000  +0.373000  +0.373000
  +0.373000  +0.423000  +1.000000
#
# Mach: 4.5
  +0.310000  +0.316000  +0.330000  +0.335000  +0.345000  +0.360000  +0.360000
  +0.360000  +0.410000  +1.000000
#
# Mach: 6.0
  +0.310000  +0.316000  +0.330000  +0.335000  +0.345000  +0.360000  +0.360000
  +0.360000  +0.410000  +1.000000
#
#
#-----------------------------------------------------
#     Rocket SOLID ROCKET ENGINE DATA
#-----------------------------------------------------
#
#-----------------------------------------------------
# BURN TIME BREAKPOINTS
#-----------------------------------------------------
# BRNTIME
5
  +0.000000  +0.100000  +0.125000
 +11.100000 +11.125000
#
#-----------------------------------------------------
# ENGINE THRUST (LBS)
#-----------------------------------------------------
#
        +0.000000        +0.000000     +6511.400000
     +6511.400000        +0.000000
#
#-----------------------------------------------------
#     Range Data
#-----------------------------------------------------
#
#Table Multiplier
0.95
#
#-----------------------------------------------------
# Number of Altitude Breakpoints
#-----------------------------------------------------
#
6
      +0.000000  +10000.000000  +20000.000000
  +30000.000000  +40000.000000  +50000.000000
#
#-----------------------------------------------------
# number of ownship vel breakpoints
#-----------------------------------------------------
#
3
      +0.000000    +800.000000   +1300.000000
#
#-----------------------------------------------------
# number of aspect breakpoints
#-----------------------------------------------------
#
6
      +0.000000  +10000.000000  +20000.000000
  +30000.000000  +40000.000000  +50000.000000
#
# Alt = 0.0
# Vel = 0.0
  +63355.000000  +63433.000000  +61495.000000  +56826.000000  +45316.000000  +32884.000000
#
# Alt = 0.0
# Vel = 800.0
  +71879.000000  +73499.000000  +73956.000000  +73134.000000  +70997.000000  +67144.000000
#
# Alt = 0.0
# Vel = 1300.0
  +78586.000000  +81659.000000  +84010.000000  +85585.000000  +86653.000000  +86331.000000
#
#
# Alt = 10000.0
# Vel = 0.0
  +73408.000000  +76587.000000  +78898.000000  +80176.000000  +80676.000000  +79290.000000
#
# Alt = 10000.0
# Vel = 800.0
  +83935.000000  +89514.000000  +94599.000000  +99595.000000 +103362.000000 +104970.000000
#
# Alt = 10000.0
# Vel = 1300.0
  +92901.000000 +100731.000000 +109077.000000 +116864.000000 +122509.000000 +125817.000000
#
#
# Alt = 20000.0
# Vel = 0.0
  +83170.000000  +90010.000000  +96316.000000 +102243.000000 +106258.000000 +108045.000000
#
# Alt = 20000.0
# Vel = 800.0
  +96827.000000 +107235.000000 +117972.000000 +126670.000000 +132877.000000 +136740.000000
#
# Alt = 20000.0
# Vel = 1300.0
 +108366.000000 +122509.000000 +135928.000000 +146342.000000 +153695.000000 +158508.000000
#
#
# Alt = 30000.0
# Vel = 0.0
  +93414.000000 +104560.000000 +115153.000000 +123469.000000 +129245.000000 +132797.000000
#
# Alt = 30000.0
# Vel = 800.0
 +110878.000000 +126279.000000 +140169.000000 +150681.000000 +158127.000000 +162976.000000
#
# Alt = 30000.0
# Vel = 1300.0
 +125193.000000 +143920.000000 +159904.000000 +171688.000000 +179907.000000 +185448.000000
#
#
# Alt = 40000.0
# Vel = 0.0
 +104430.000000 +119166.000000 +132138.000000 +141900.000000 +148719.000000 +153074.000000
#
# Alt = 40000.0
# Vel = 800.0
 +124569.000000 +143506.000000 +159208.000000 +170695.000000 +178728.000000 +184084.000000
#
# Alt = 40000.0
# Vel = 1300.0
 +140571.000000 +162581.000000 +180051.000000 +192744.000000 +201453.000000 +207521.000000
#
#
# Alt = 50000.0
# Vel = 0.0
 +114045.000000 +131485.000000 +145890.000000 +156520.000000 +163801.000000 +168538.000000
#
# Alt = 50000.0
# Vel = 800.0
 +136068.000000 +157447.000000 +174102.000000 +186140.000000 +194322.000000 +199895.000000
#
# Alt = 50000.0
# Vel = 1300.0
 +153504.000000 +177839.000000 +196382.000000 +209399.000000 +218364.000000 +224664.000000
#
#
#-----------------------------------------------------
#     Aux Data
#-----------------------------------------------------
#
#-----------------------------------------------------
# Type and Misc
#-----------------------------------------------------
maxToe 0
foxType 2
maxspeed 0
correctedWeigthCode 0
deployableWingsTime 0.1
errorfromparrent 0
pickleTimeDelay 0
AspectSelectorSize 50
#-----------------------------------------------------
# Engine
#-----------------------------------------------------
engLocation -8.50 0.00 0.40
EngineSound 267
hasGasDynamicManeuvering 0
mistrail 49
contrail 0
misengGlowBSP 672
#-----------------------------------------------------
# Rocket
#-----------------------------------------------------
rocketDispersionConeAngle 0
rocketSalvoSize -1
#-----------------------------------------------------
# SecondStage
#-----------------------------------------------------
SecondStageTimer 0
SecondStageWeight 0
SecondStageOffset 0
#-----------------------------------------------------
# Guidance
#-----------------------------------------------------
OpticalEyeOffset 5
hasInertialGuidance 0
InsDrift 0.0
AntiRadSensorPrecision 0.0
TerminalStageDist 7.0
dataLinkPodType 0
#-----------------------------------------------------
# Range
#-----------------------------------------------------
MinEngagementRange 0
MinEngagementAlt -1
miniaerorange 0
#-----------------------------------------------------
# Loft
#-----------------------------------------------------
loftTableFilename 
RMaxTableType 1
#-----------------------------------------------------
# Gs
#-----------------------------------------------------
maxGTerminal 26
maxGNormal 26
RaeroTerminalGmax 8
RaeroTerminalGmin 2
#-----------------------------------------------------
# Fuse
#-----------------------------------------------------
ProximityfuseChange 75
proximityfuserange 1000
#-----------------------------------------------------
# AIM-9 Sounds
#-----------------------------------------------------
sndAim9Growl 6
sndAim9GrowlLock 7
sndAim9Uncaged 182
sndAim9EnviroSky 186
sndAim9EnviroGround 187
#-----------------------------------------------------
# Particle sys files
#-----------------------------------------------------
psGroundImpact 
psMissileKill 
psFeatureImpact 
psBombImpact 
psArmingDelay 
psExceedFOV 
psRocketBurst 
#-----------------------------------------------------
# Counter
#-----------------------------------------------------
ChaffBurstChances 2
ChaffBurstResetInterval 2000
ClutterFactorHeight 4000
ChaffClutterFactor 1.1
BeamScanRatioForSearch 2
#
#-----------------------------------------------------
# Additionals that are not included in MDM.
#-----------------------------------------------------
